…
`pivot_longer`

load the PULSE biomarkers dataset from a .sas7bdat.

``` r
pulse_df =
  haven::read_sas("./data/public_pulse_data.sas7bdat") |>
  janitor::clean_names()

pulse_df
```

    ## # A tibble: 1,087 × 7
    ##      id   age sex   bdi_score_bl bdi_score_01m bdi_score_06m bdi_score_12m
    ##   <dbl> <dbl> <chr>        <dbl>         <dbl>         <dbl>         <dbl>
    ## 1 10003  48.0 male             7             1             2             0
    ## 2 10015  72.5 male             6            NA            NA            NA
    ## 3 10022  58.5 male            14             3             8            NA
    ## 4 10026  72.7 male            20             6            18            16
    ## 5 10035  60.4 male             4             0             1             2
    ## # ℹ 1,082 more rows

fix problem using `pivot_longer`

``` r
pulse_tidy_data =
  pivot_longer(
    pulse_df,
    bdi_score_bl:bdi_score_12m,
    names_to = "visit",
    values_to = "bdi")

pulse_tidy_data
```

    ## # A tibble: 4,348 × 5
    ##      id   age sex   visit           bdi
    ##   <dbl> <dbl> <chr> <chr>         <dbl>
    ## 1 10003  48.0 male  bdi_score_bl      7
    ## 2 10003  48.0 male  bdi_score_01m     1
    ## 3 10003  48.0 male  bdi_score_06m     2
    ## 4 10003  48.0 male  bdi_score_12m     0
    ## 5 10015  72.5 male  bdi_score_bl      6
    ## # ℹ 4,343 more rows
fix `visit`

``` r
pulse_tidy_data = 
  pivot_longer(
    pulse_df,
    bdi_score_bl:bdi_score_12m,
    names_to = "visit",
    names_prefix = "bdi_score_",
    values_to = "bdi")

pulse_tidy_data
```

    ## # A tibble: 4,348 × 5
    ##      id   age sex   visit   bdi
    ##   <dbl> <dbl> <chr> <chr> <dbl>
    ## 1 10003  48.0 male  bl        7
    ## 2 10003  48.0 male  01m       1
    ## 3 10003  48.0 male  06m       2
    ## 4 10003  48.0 male  12m       0
    ## 5 10015  72.5 male  bl        6
    ## # ℹ 4,343 more rows
…
print(pulse_df, n = 12)
```

    ## # A tibble: 4,348 × 5
    ##       id   age sex   visit   bdi
    ##    <dbl> <dbl> <chr> <fct> <dbl>
    ##  1 10003  48.0 male  00m       7
    ##  2 10003  48.0 male  01m       1
    ##  3 10003  48.0 male  06m       2
    ##  4 10003  48.0 male  12m       0
    ##  5 10015  72.5 male  00m       6
    ##  6 10015  72.5 male  01m      NA
    ##  7 10015  72.5 male  06m      NA
    ##  8 10015  72.5 male  12m      NA
    ##  9 10022  58.5 male  00m      14
    ## 10 10022  58.5 male  01m       3
    ## 11 10022  58.5 male  06m       8
    ## 12 10022  58.5 male  12m      NA
    ## # ℹ 4,336 more rows
…
``` r
fas_data = 
  left_join(pup_data, litter_data, by = "litter_number")

fas_data
```

    ## # A tibble: 313 × 15
    ##   litter_number sex   pd_ears pd_eyes pd_pivot pd_walk dose  day_of_tx
    ##   <chr>         <fct>   <dbl>   <dbl>    <dbl>   <dbl> <chr> <chr>    
    ## 1 #85           male        4      13        7      11 con   7        
    ## 2 #85           male        4      13        7      12 con   7        
    ## 3 #1/2/95/2     male        5      13        7       9 con   7        
    ## 4 #1/2/95/2     male        5      13        8      10 con   7        
    ## 5 #5/5/3/83/3-3 male        5      13        8      10 con   7        
    ## # ℹ 308 more rows
    ## # ℹ 7 more variables: gd0_weight <dbl>, gd18_weight <dbl>, gd_of_birth <dbl>,
    ## #   pups_born_alive <dbl>, pups_dead_birth <dbl>, pups_survive <dbl>,
    ## #   vt_gain <dbl>
